# vtk DataFile Version 2.0
sampleSurface
ASCII
DATASET POLYDATA
POINTS 6 float
0.0704571 -0.0493344 0.5
0.0704571 -0.0493344 -0.5
-0.0339249 0.237454 0.5
-0.0339249 0.237454 -0.5
-0.339119 0.237454 0.5
-0.339119 0.237454 -0.5

POLYGONS 8 32
3 4 2 5
3 5 2 3
3 4 0 2
3 5 1 0
3 4 5 0
3 5 3 1
3 3 2 0
3 1 3 0
CELL_DATA 8
FIELD attributes 1
pd 1 8 float
183.522 357.958 12271.1 15503.8 9978.46 12271.1 -998.432 49761.6
