(   // time        x          y          z           Rotx       Roty       Rotz
   (0.000000   ((0.000000  0.000000   0.000000)   (0.000000   0.000000   0.000000)))
   (0.002709   ((0.003099  -0.002170   0.000000)   (0.000000   0.000000   0.000000)))
   (0.005499   ((0.006242  -0.004371   0.000000)   (0.000000   0.000000   0.000000)))
   (0.008444   ((0.009649  -0.006756   0.000000)   (0.000000   0.000000   0.000000)))
   (0.011600   ((0.013400  -0.009383   0.000000)   (0.000000   0.000000   0.000000)))
   (0.015000   ((0.017551  -0.012289   0.000000)   (0.000000   0.000000   0.000000)))
   (0.018688   ((0.022269  -0.015593   0.000000)   (0.000000   0.000000   0.000000)))
   (0.022591   ((0.027454  -0.019223   0.000000)   (0.000000   0.000000   0.000000)))
   (0.026654   ((0.033191  -0.023241   0.000000)   (0.000000   0.000000   0.000000)))
   (0.030813   ((0.039336  -0.027543   0.000000)   (0.000000   0.000000   0.000000)))
   (0.035000   ((0.045749  -0.032034   0.000000)   (0.000000   0.000000   0.000000)))
   (0.039082   ((0.052338  -0.036647   0.000000)   (0.000000   0.000000   0.000000)))
   (0.043117   ((0.058932  -0.041264   0.000000)   (0.000000   0.000000   0.000000)))
   (0.047106   ((0.065666  -0.045980   0.000000)   (0.000000   0.000000   0.000000)))
   (0.051060   ((0.072212  -0.050563   0.000000)   (0.000000   0.000000   0.000000)))
   (0.055000   ((0.078571  -0.055016   0.000000)   (0.000000   0.000000   0.000000)))
   (0.058968   ((0.084886  -0.059437   0.000000)   (0.000000   0.000000   0.000000)))
   (0.062950   ((0.091425  -0.064016   0.000000)   (0.000000   0.000000   0.000000)))
   (0.066951   ((0.098007  -0.068625   0.000000)   (0.000000   0.000000   0.000000)))
   (0.070970   ((0.104644  -0.073273   0.000000)   (0.000000   0.000000   0.000000)))
   (0.075000   ((0.111342  -0.077963   0.000000)   (0.000000   0.000000   0.000000)))
   (0.078986   ((0.118025  -0.082642   0.000000)   (0.000000   0.000000   0.000000)))
   (0.082977   ((0.124787  -0.087377   0.000000)   (0.000000   0.000000   0.000000)))
   (0.086977   ((0.131646  -0.092180   0.000000)   (0.000000   0.000000   0.000000)))
   (0.090985   ((0.138609  -0.097055   0.000000)   (0.000000   0.000000   0.000000)))
   (0.095000   ((0.145671  -0.102000   0.000000)   (0.000000   0.000000   0.000000)))
   (0.098983   ((0.152758  -0.106963   0.000000)   (0.000000   0.000000   0.000000)))
   (0.102972   ((0.159922  -0.111978   0.000000)   (0.000000   0.000000   0.000000)))
   (0.106971   ((0.167161  -0.117048   0.000000)   (0.000000   0.000000   0.000000)))
   (0.110982   ((0.174469  -0.122165   0.000000)   (0.000000   0.000000   0.000000)))
   (0.115000   ((0.181822  -0.127313   0.000000)   (0.000000   0.000000   0.000000)))
   (0.118979   ((0.189118  -0.132422   0.000000)   (0.000000   0.000000   0.000000)))
   (0.122967   ((0.196423  -0.137537   0.000000)   (0.000000   0.000000   0.000000)))
   (0.126966   ((0.203735  -0.142657   0.000000)   (0.000000   0.000000   0.000000)))
   (0.130978   ((0.211050  -0.147779   0.000000)   (0.000000   0.000000   0.000000)))
   (0.135000   ((0.218358  -0.152896   0.000000)   (0.000000   0.000000   0.000000)))
   (0.138976   ((0.225554  -0.157935   0.000000)   (0.000000   0.000000   0.000000)))
   (0.142961   ((0.232734  -0.162962   0.000000)   (0.000000   0.000000   0.000000)))
   (0.146961   ((0.239925  -0.167997   0.000000)   (0.000000   0.000000   0.000000)))
   (0.150975   ((0.247139  -0.173049   0.000000)   (0.000000   0.000000   0.000000)))
   (0.155000   ((0.254384  -0.178121   0.000000)   (0.000000   0.000000   0.000000)))
   (0.158973   ((0.261557  -0.183144   0.000000)   (0.000000   0.000000   0.000000)))
   (0.162956   ((0.268773  -0.188197   0.000000)   (0.000000   0.000000   0.000000)))
   (0.166955   ((0.276052  -0.193294   0.000000)   (0.000000   0.000000   0.000000)))
   (0.170972   ((0.283401  -0.198440   0.000000)   (0.000000   0.000000   0.000000)))
   (0.175000   ((0.290805  -0.203624   0.000000)   (0.000000   0.000000   0.000000)))
   (0.178969   ((0.298122  -0.208747   0.000000)   (0.000000   0.000000   0.000000)))
   (0.182950   ((0.305465  -0.213889   0.000000)   (0.000000   0.000000   0.000000)))
   (0.186950   ((0.312854  -0.219063   0.000000)   (0.000000   0.000000   0.000000)))
   (0.190968   ((0.320289  -0.224269   0.000000)   (0.000000   0.000000   0.000000)))
   (0.195000   ((0.327761  -0.229501   0.000000)   (0.000000   0.000000   0.000000)))
   (0.198966   ((0.335120  -0.234654   0.000000)   (0.000000   0.000000   0.000000)))
   (0.202945   ((0.342501  -0.239822   0.000000)   (0.000000   0.000000   0.000000)))
   (0.206944   ((0.349921  -0.245017   0.000000)   (0.000000   0.000000   0.000000)))
   (0.210965   ((0.357381  -0.250241   0.000000)   (0.000000   0.000000   0.000000)))
   (0.215000   ((0.364862  -0.255479   0.000000)   (0.000000   0.000000   0.000000)))
   (0.218962   ((0.372198  -0.260616   0.000000)   (0.000000   0.000000   0.000000)))
   (0.222940   ((0.379539  -0.265756   0.000000)   (0.000000   0.000000   0.000000)))
   (0.226939   ((0.386909  -0.270916   0.000000)   (0.000000   0.000000   0.000000)))
   (0.230961   ((0.394321  -0.276106   0.000000)   (0.000000   0.000000   0.000000)))
   (0.235000   ((0.401769  -0.281321   0.000000)   (0.000000   0.000000   0.000000)))
   (0.238959   ((0.408934  -0.286339   0.000000)   (0.000000   0.000000   0.000000)))
   (0.242934   ((0.415996  -0.291284   0.000000)   (0.000000   0.000000   0.000000)))
   (0.246934   ((0.422969  -0.296166   0.000000)   (0.000000   0.000000   0.000000)))
   (0.250958   ((0.429848  -0.300983   0.000000)   (0.000000   0.000000   0.000000)))
   (0.255000   ((0.436621  -0.305726   0.000000)   (0.000000   0.000000   0.000000)))
   (0.258956   ((0.443116  -0.310273   0.000000)   (0.000000   0.000000   0.000000)))
   (0.262929   ((0.449505  -0.314747   0.000000)   (0.000000   0.000000   0.000000)))
   (0.266928   ((0.455803  -0.319157   0.000000)   (0.000000   0.000000   0.000000)))
   (0.270955   ((0.462010  -0.323503   0.000000)   (0.000000   0.000000   0.000000)))
   (0.275000   ((0.468107  -0.327772   0.000000)   (0.000000   0.000000   0.000000)))
   (0.280000   ((0.475473  -0.332930   0.000000)   (0.000000   0.000000   0.000000)))
   (0.285000   ((0.482629  -0.337940   0.000000)   (0.000000   0.000000   0.000000)))
   (0.290000   ((0.489574  -0.342803   0.000000)   (0.000000   0.000000   0.000000)))
   (0.295000   ((0.496309  -0.347519   0.000000)   (0.000000   0.000000   0.000000)))
   (0.300000   ((0.502833  -0.352088   0.000000)   (0.000000   0.000000   0.000000)))
   (0.305000   ((0.509147  -0.356509   0.000000)   (0.000000   0.000000   1.166667)))
   (0.310000   ((0.515336  -0.360657   0.000000)   (0.000000   0.000000   2.333333)))
   (0.315000   ((0.521392  -0.364540   0.000000)   (0.000000   0.000000   3.500000)))
   (0.320000   ((0.527307  -0.368165   0.000000)   (0.000000   0.000000   4.666667)))
   (0.325000   ((0.533073  -0.371538   0.000000)   (0.000000   0.000000   5.833333)))
   (0.330000   ((0.538682  -0.374669   0.000000)   (0.000000   0.000000   7.000000)))
   (0.335000   ((0.544126  -0.377564   0.000000)   (0.000000   0.000000   8.166667)))
   (0.340000   ((0.549399  -0.380231   0.000000)   (0.000000   0.000000   9.333333)))
   (0.345000   ((0.554494  -0.382679   0.000000)   (0.000000   0.000000   10.500000)))
   (0.350000   ((0.559404  -0.384917   0.000000)   (0.000000   0.000000   11.666667)))
   (0.355000   ((0.564122  -0.386952   0.000000)   (0.000000   0.000000   12.833333)))
   (0.360000   ((0.568643  -0.388794   0.000000)   (0.000000   0.000000   14.000000)))
   (0.365000   ((0.572960  -0.390451   0.000000)   (0.000000   0.000000   15.166667)))
   (0.370000   ((0.577069  -0.391933   0.000000)   (0.000000   0.000000   16.333333)))
   (0.375000   ((0.580964  -0.393249   0.000000)   (0.000000   0.000000   17.500000)))
   (0.380000   ((0.584639  -0.394408   0.000000)   (0.000000   0.000000   18.666667)))
   (0.385000   ((0.588091  -0.395419   0.000000)   (0.000000   0.000000   19.833333)))
   (0.390000   ((0.591315  -0.396293   0.000000)   (0.000000   0.000000   21.000000)))
   (0.395000   ((0.594306  -0.397039   0.000000)   (0.000000   0.000000   22.166667)))
   (0.400000   ((0.597062  -0.397667   0.000000)   (0.000000   0.000000   23.333333)))
   (0.405000   ((0.599578  -0.398187   0.000000)   (0.000000   0.000000   24.500000)))
   (0.410000   ((0.601852  -0.398608   0.000000)   (0.000000   0.000000   25.666667)))
   (0.415000   ((0.603880  -0.398941   0.000000)   (0.000000   0.000000   26.833333)))
   (0.420000   ((0.605660  -0.399197   0.000000)   (0.000000   0.000000   28.000000)))
   (0.425000   ((0.607190  -0.399385   0.000000)   (0.000000   0.000000   29.166667)))
   (0.430000   ((0.608468  -0.399515   0.000000)   (0.000000   0.000000   30.333333)))
   (0.435000   ((0.609493  -0.399599   0.000000)   (0.000000   0.000000   31.500000)))
   (0.440000   ((0.610262  -0.399646   0.000000)   (0.000000   0.000000   32.666667)))
   (0.445000   ((0.610775  -0.399667   0.000000)   (0.000000   0.000000   33.833333)))
   (0.450000   ((0.611032  -0.399672   0.000000)   (0.000000   0.000000   35.000000)))
   (0.500000   ((0.611032  -0.399672   0.000000)   (0.000000   0.000000   35.000000)))
   (1.000000   ((0.611032  -0.399672   0.000000)   (0.000000   0.000000   35.000000)))
   (2.000000   ((0.611032  -0.399672   0.000000)   (0.000000   0.000000   35.000000)))
   (3.000000   ((0.611032  -0.399672   0.000000)   (0.000000   0.000000   35.000000)))
   (4.000000   ((0.611032  -0.399672   0.000000)   (0.000000   0.000000   35.000000)))
)
