# vtk DataFile Version 2.0
sampleSurface
ASCII
DATASET POLYDATA
POINTS 6 float
0 0 0.5
0 0 -0.5
-0.104382 0.286788 0.5
-0.104382 0.286788 -0.5
-0.409576 0.286788 0.5
-0.409576 0.286788 -0.5

POLYGONS 8 32
3 4 2 5
3 5 2 3
3 4 0 2
3 5 1 0
3 4 5 0
3 5 3 1
3 3 2 0
3 1 3 0
CELL_DATA 8
FIELD attributes 1
alpha1 1 8 float
0 0 0.157029 1 0 0.157029 0 0
