solid OpenSCAD_Model
  facet normal -0 1 0
    outer loop
       vertex -0.351556 0.246163 0.5
       vertex -0.0463623 0.246163 0.5
       vertex -0.351556 0.246163 -0.5
    endloop
  endfacet
  facet normal 0 1 0
    outer loop
       vertex -0.351556 0.246163 -0.5
       vertex -0.0463623 0.246163 0.5
       vertex -0.0463623 0.246163 -0.5
    endloop
  endfacet
  facet normal -0 0 1
    outer loop
       vertex -0.351556 0.246163 0.5
       vertex 0.0580197 -0.0406252 0.5
       vertex -0.0463623 0.246163 0.5
    endloop
  endfacet
  facet normal -0.573576 -0.819152 0
    outer loop
       vertex -0.351556 0.246163 -0.5
       vertex 0.0580197 -0.0406252 -0.5
       vertex 0.0580197 -0.0406252 0.5
    endloop
  endfacet
  facet normal -0.573576 -0.819152 -0
    outer loop
       vertex -0.351556 0.246163 0.5
       vertex -0.351556 0.246163 -0.5
       vertex 0.0580197 -0.0406252 0.5
    endloop
  endfacet
  facet normal 0 0 -1
    outer loop
       vertex -0.351556 0.246163 -0.5
       vertex -0.0463623 0.246163 -0.5
       vertex 0.0580197 -0.0406252 -0.5
    endloop
  endfacet
  facet normal 0.939693 0.342019 -0
    outer loop
       vertex -0.0463623 0.246163 -0.5
       vertex -0.0463623 0.246163 0.5
       vertex 0.0580197 -0.0406252 0.5
    endloop
  endfacet
  facet normal 0.939693 0.342019 -0
    outer loop
       vertex 0.0580197 -0.0406252 -0.5
       vertex -0.0463623 0.246163 -0.5
       vertex 0.0580197 -0.0406252 0.5
    endloop
  endfacet
endsolid OpenSCAD_Model
