solid OpenSCAD_Model
  facet normal -0 1 0
    outer loop
       vertex -0.346119 0.242355 0.5
       vertex -0.0409254 0.242355 0.5
       vertex -0.346119 0.242355 -0.5
    endloop
  endfacet
  facet normal 0 1 0
    outer loop
       vertex -0.346119 0.242355 -0.5
       vertex -0.0409254 0.242355 0.5
       vertex -0.0409254 0.242355 -0.5
    endloop
  endfacet
  facet normal -0 0 1
    outer loop
       vertex -0.346119 0.242355 0.5
       vertex 0.0634566 -0.0444327 0.5
       vertex -0.0409254 0.242355 0.5
    endloop
  endfacet
  facet normal -0.573576 -0.819152 0
    outer loop
       vertex -0.346119 0.242355 -0.5
       vertex 0.0634566 -0.0444327 -0.5
       vertex 0.0634566 -0.0444327 0.5
    endloop
  endfacet
  facet normal -0.573576 -0.819152 -0
    outer loop
       vertex -0.346119 0.242355 0.5
       vertex -0.346119 0.242355 -0.5
       vertex 0.0634566 -0.0444327 0.5
    endloop
  endfacet
  facet normal 0 0 -1
    outer loop
       vertex -0.346119 0.242355 -0.5
       vertex -0.0409254 0.242355 -0.5
       vertex 0.0634566 -0.0444327 -0.5
    endloop
  endfacet
  facet normal 0.939693 0.342019 -0
    outer loop
       vertex -0.0409254 0.242355 -0.5
       vertex -0.0409254 0.242355 0.5
       vertex 0.0634566 -0.0444327 0.5
    endloop
  endfacet
  facet normal 0.939693 0.342019 -0
    outer loop
       vertex 0.0634566 -0.0444327 -0.5
       vertex -0.0409254 0.242355 -0.5
       vertex 0.0634566 -0.0444327 0.5
    endloop
  endfacet
endsolid OpenSCAD_Model
