solid OpenSCAD_Model
  facet normal -0 1 0
    outer loop
       vertex -0.340281 0.238267 0.5
       vertex -0.035087 0.238267 0.5
       vertex -0.340281 0.238267 -0.5
    endloop
  endfacet
  facet normal 0 1 0
    outer loop
       vertex -0.340281 0.238267 -0.5
       vertex -0.035087 0.238267 0.5
       vertex -0.035087 0.238267 -0.5
    endloop
  endfacet
  facet normal -0 0 1
    outer loop
       vertex -0.340281 0.238267 0.5
       vertex 0.069295 -0.0485208 0.5
       vertex -0.035087 0.238267 0.5
    endloop
  endfacet
  facet normal -0.573576 -0.819152 0
    outer loop
       vertex -0.340281 0.238267 -0.5
       vertex 0.069295 -0.0485208 -0.5
       vertex 0.069295 -0.0485208 0.5
    endloop
  endfacet
  facet normal -0.573576 -0.819152 -0
    outer loop
       vertex -0.340281 0.238267 0.5
       vertex -0.340281 0.238267 -0.5
       vertex 0.069295 -0.0485208 0.5
    endloop
  endfacet
  facet normal 0 0 -1
    outer loop
       vertex -0.340281 0.238267 -0.5
       vertex -0.035087 0.238267 -0.5
       vertex 0.069295 -0.0485208 -0.5
    endloop
  endfacet
  facet normal 0.939693 0.342019 -0
    outer loop
       vertex -0.035087 0.238267 -0.5
       vertex -0.035087 0.238267 0.5
       vertex 0.069295 -0.0485208 0.5
    endloop
  endfacet
  facet normal 0.939693 0.342019 -0
    outer loop
       vertex 0.069295 -0.0485208 -0.5
       vertex -0.035087 0.238267 -0.5
       vertex 0.069295 -0.0485208 0.5
    endloop
  endfacet
endsolid OpenSCAD_Model
