solid OpenSCAD_Model
  facet normal -0 1 0
    outer loop
       vertex -0.347778 0.243517 0.5
       vertex -0.0425842 0.243517 0.5
       vertex -0.347778 0.243517 -0.5
    endloop
  endfacet
  facet normal 0 1 0
    outer loop
       vertex -0.347778 0.243517 -0.5
       vertex -0.0425842 0.243517 0.5
       vertex -0.0425842 0.243517 -0.5
    endloop
  endfacet
  facet normal -0 0 1
    outer loop
       vertex -0.347778 0.243517 0.5
       vertex 0.0617978 -0.043271 0.5
       vertex -0.0425842 0.243517 0.5
    endloop
  endfacet
  facet normal -0.573576 -0.819152 0
    outer loop
       vertex -0.347778 0.243517 -0.5
       vertex 0.0617978 -0.043271 -0.5
       vertex 0.0617978 -0.043271 0.5
    endloop
  endfacet
  facet normal -0.573576 -0.819152 -0
    outer loop
       vertex -0.347778 0.243517 0.5
       vertex -0.347778 0.243517 -0.5
       vertex 0.0617978 -0.043271 0.5
    endloop
  endfacet
  facet normal 0 0 -1
    outer loop
       vertex -0.347778 0.243517 -0.5
       vertex -0.0425842 0.243517 -0.5
       vertex 0.0617978 -0.043271 -0.5
    endloop
  endfacet
  facet normal 0.939693 0.342019 -0
    outer loop
       vertex -0.0425842 0.243517 -0.5
       vertex -0.0425842 0.243517 0.5
       vertex 0.0617978 -0.043271 0.5
    endloop
  endfacet
  facet normal 0.939693 0.342019 -0
    outer loop
       vertex 0.0617978 -0.043271 -0.5
       vertex -0.0425842 0.243517 -0.5
       vertex 0.0617978 -0.043271 0.5
    endloop
  endfacet
endsolid OpenSCAD_Model
