solid OpenSCAD_Model
  facet normal -0 1 0
    outer loop
       vertex -0.404754 0.283412 0.5
       vertex -0.0995605 0.283412 0.5
       vertex -0.404754 0.283412 -0.5
    endloop
  endfacet
  facet normal 0 1 0
    outer loop
       vertex -0.404754 0.283412 -0.5
       vertex -0.0995605 0.283412 0.5
       vertex -0.0995605 0.283412 -0.5
    endloop
  endfacet
  facet normal -0 0 1
    outer loop
       vertex -0.404754 0.283412 0.5
       vertex 0.00482153 -0.00337626 0.5
       vertex -0.0995605 0.283412 0.5
    endloop
  endfacet
  facet normal -0.573576 -0.819152 0
    outer loop
       vertex -0.404754 0.283412 -0.5
       vertex 0.00482153 -0.00337626 -0.5
       vertex 0.00482153 -0.00337626 0.5
    endloop
  endfacet
  facet normal -0.573576 -0.819152 -0
    outer loop
       vertex -0.404754 0.283412 0.5
       vertex -0.404754 0.283412 -0.5
       vertex 0.00482153 -0.00337626 0.5
    endloop
  endfacet
  facet normal 0 0 -1
    outer loop
       vertex -0.404754 0.283412 -0.5
       vertex -0.0995605 0.283412 -0.5
       vertex 0.00482153 -0.00337626 -0.5
    endloop
  endfacet
  facet normal 0.939693 0.342019 -0
    outer loop
       vertex -0.0995605 0.283412 -0.5
       vertex -0.0995605 0.283412 0.5
       vertex 0.00482153 -0.00337626 0.5
    endloop
  endfacet
  facet normal 0.939693 0.342019 -0
    outer loop
       vertex 0.00482153 -0.00337626 -0.5
       vertex -0.0995605 0.283412 -0.5
       vertex 0.00482153 -0.00337626 0.5
    endloop
  endfacet
endsolid OpenSCAD_Model
