solid OpenSCAD_Model
  facet normal -0 1 0
    outer loop
       vertex -0.402625 0.281921 0.5
       vertex -0.0974314 0.281921 0.5
       vertex -0.402625 0.281921 -0.5
    endloop
  endfacet
  facet normal 0 1 0
    outer loop
       vertex -0.402625 0.281921 -0.5
       vertex -0.0974314 0.281921 0.5
       vertex -0.0974314 0.281921 -0.5
    endloop
  endfacet
  facet normal -0 0 1
    outer loop
       vertex -0.402625 0.281921 0.5
       vertex 0.00695064 -0.00486707 0.5
       vertex -0.0974314 0.281921 0.5
    endloop
  endfacet
  facet normal -0.573576 -0.819152 0
    outer loop
       vertex -0.402625 0.281921 -0.5
       vertex 0.00695064 -0.00486707 -0.5
       vertex 0.00695064 -0.00486707 0.5
    endloop
  endfacet
  facet normal -0.573576 -0.819152 -0
    outer loop
       vertex -0.402625 0.281921 0.5
       vertex -0.402625 0.281921 -0.5
       vertex 0.00695064 -0.00486707 0.5
    endloop
  endfacet
  facet normal 0 0 -1
    outer loop
       vertex -0.402625 0.281921 -0.5
       vertex -0.0974314 0.281921 -0.5
       vertex 0.00695064 -0.00486707 -0.5
    endloop
  endfacet
  facet normal 0.939693 0.342019 -0
    outer loop
       vertex -0.0974314 0.281921 -0.5
       vertex -0.0974314 0.281921 0.5
       vertex 0.00695064 -0.00486707 0.5
    endloop
  endfacet
  facet normal 0.939693 0.342019 -0
    outer loop
       vertex 0.00695064 -0.00486707 -0.5
       vertex -0.0974314 0.281921 -0.5
       vertex 0.00695064 -0.00486707 0.5
    endloop
  endfacet
endsolid OpenSCAD_Model
