solid OpenSCAD_Model
  facet normal -0 1 0
    outer loop
       vertex -0.351559 0.246165 0.5
       vertex -0.0463653 0.246165 0.5
       vertex -0.351559 0.246165 -0.5
    endloop
  endfacet
  facet normal 0 1 0
    outer loop
       vertex -0.351559 0.246165 -0.5
       vertex -0.0463653 0.246165 0.5
       vertex -0.0463653 0.246165 -0.5
    endloop
  endfacet
  facet normal -0 0 1
    outer loop
       vertex -0.351559 0.246165 0.5
       vertex 0.0580167 -0.0406231 0.5
       vertex -0.0463653 0.246165 0.5
    endloop
  endfacet
  facet normal -0.573576 -0.819152 0
    outer loop
       vertex -0.351559 0.246165 -0.5
       vertex 0.0580167 -0.0406231 -0.5
       vertex 0.0580167 -0.0406231 0.5
    endloop
  endfacet
  facet normal -0.573576 -0.819152 -0
    outer loop
       vertex -0.351559 0.246165 0.5
       vertex -0.351559 0.246165 -0.5
       vertex 0.0580167 -0.0406231 0.5
    endloop
  endfacet
  facet normal 0 0 -1
    outer loop
       vertex -0.351559 0.246165 -0.5
       vertex -0.0463653 0.246165 -0.5
       vertex 0.0580167 -0.0406231 -0.5
    endloop
  endfacet
  facet normal 0.939693 0.342019 -0
    outer loop
       vertex -0.0463653 0.246165 -0.5
       vertex -0.0463653 0.246165 0.5
       vertex 0.0580167 -0.0406231 0.5
    endloop
  endfacet
  facet normal 0.939693 0.342019 -0
    outer loop
       vertex 0.0580167 -0.0406231 -0.5
       vertex -0.0463653 0.246165 -0.5
       vertex 0.0580167 -0.0406231 0.5
    endloop
  endfacet
endsolid OpenSCAD_Model
