solid OpenSCAD_Model
  facet normal -0 1 0
    outer loop
       vertex -0.4008 0.280643 0.5
       vertex -0.0956064 0.280643 0.5
       vertex -0.4008 0.280643 -0.5
    endloop
  endfacet
  facet normal 0 1 0
    outer loop
       vertex -0.4008 0.280643 -0.5
       vertex -0.0956064 0.280643 0.5
       vertex -0.0956064 0.280643 -0.5
    endloop
  endfacet
  facet normal -0 0 1
    outer loop
       vertex -0.4008 0.280643 0.5
       vertex 0.0087756 -0.0061446 0.5
       vertex -0.0956064 0.280643 0.5
    endloop
  endfacet
  facet normal -0.573576 -0.819152 0
    outer loop
       vertex -0.4008 0.280643 -0.5
       vertex 0.0087756 -0.0061446 -0.5
       vertex 0.0087756 -0.0061446 0.5
    endloop
  endfacet
  facet normal -0.573576 -0.819152 -0
    outer loop
       vertex -0.4008 0.280643 0.5
       vertex -0.4008 0.280643 -0.5
       vertex 0.0087756 -0.0061446 0.5
    endloop
  endfacet
  facet normal 0 0 -1
    outer loop
       vertex -0.4008 0.280643 -0.5
       vertex -0.0956064 0.280643 -0.5
       vertex 0.0087756 -0.0061446 -0.5
    endloop
  endfacet
  facet normal 0.939693 0.342019 -0
    outer loop
       vertex -0.0956064 0.280643 -0.5
       vertex -0.0956064 0.280643 0.5
       vertex 0.0087756 -0.0061446 0.5
    endloop
  endfacet
  facet normal 0.939693 0.342019 -0
    outer loop
       vertex 0.0087756 -0.0061446 -0.5
       vertex -0.0956064 0.280643 -0.5
       vertex 0.0087756 -0.0061446 0.5
    endloop
  endfacet
endsolid OpenSCAD_Model
