solid OpenSCAD_Model
  facet normal -0 1 0
    outer loop
       vertex -0.343828 0.240751 0.5
       vertex -0.0386344 0.240751 0.5
       vertex -0.343828 0.240751 -0.5
    endloop
  endfacet
  facet normal 0 1 0
    outer loop
       vertex -0.343828 0.240751 -0.5
       vertex -0.0386344 0.240751 0.5
       vertex -0.0386344 0.240751 -0.5
    endloop
  endfacet
  facet normal -0 0 1
    outer loop
       vertex -0.343828 0.240751 0.5
       vertex 0.0657476 -0.0460371 0.5
       vertex -0.0386344 0.240751 0.5
    endloop
  endfacet
  facet normal -0.573576 -0.819152 0
    outer loop
       vertex -0.343828 0.240751 -0.5
       vertex 0.0657476 -0.0460371 -0.5
       vertex 0.0657476 -0.0460371 0.5
    endloop
  endfacet
  facet normal -0.573576 -0.819152 -0
    outer loop
       vertex -0.343828 0.240751 0.5
       vertex -0.343828 0.240751 -0.5
       vertex 0.0657476 -0.0460371 0.5
    endloop
  endfacet
  facet normal 0 0 -1
    outer loop
       vertex -0.343828 0.240751 -0.5
       vertex -0.0386344 0.240751 -0.5
       vertex 0.0657476 -0.0460371 -0.5
    endloop
  endfacet
  facet normal 0.939693 0.342019 -0
    outer loop
       vertex -0.0386344 0.240751 -0.5
       vertex -0.0386344 0.240751 0.5
       vertex 0.0657476 -0.0460371 0.5
    endloop
  endfacet
  facet normal 0.939693 0.342019 -0
    outer loop
       vertex 0.0657476 -0.0460371 -0.5
       vertex -0.0386344 0.240751 -0.5
       vertex 0.0657476 -0.0460371 0.5
    endloop
  endfacet
endsolid OpenSCAD_Model
