solid OpenSCAD_Model
  facet normal -0 1 0
    outer loop
       vertex -0.400697 0.280571 0.5
       vertex -0.0955031 0.280571 0.5
       vertex -0.400697 0.280571 -0.5
    endloop
  endfacet
  facet normal 0 1 0
    outer loop
       vertex -0.400697 0.280571 -0.5
       vertex -0.0955031 0.280571 0.5
       vertex -0.0955031 0.280571 -0.5
    endloop
  endfacet
  facet normal -0 0 1
    outer loop
       vertex -0.400697 0.280571 0.5
       vertex 0.00887894 -0.00621693 0.5
       vertex -0.0955031 0.280571 0.5
    endloop
  endfacet
  facet normal -0.573576 -0.819152 0
    outer loop
       vertex -0.400697 0.280571 -0.5
       vertex 0.00887894 -0.00621693 -0.5
       vertex 0.00887894 -0.00621693 0.5
    endloop
  endfacet
  facet normal -0.573576 -0.819152 -0
    outer loop
       vertex -0.400697 0.280571 0.5
       vertex -0.400697 0.280571 -0.5
       vertex 0.00887894 -0.00621693 0.5
    endloop
  endfacet
  facet normal 0 0 -1
    outer loop
       vertex -0.400697 0.280571 -0.5
       vertex -0.0955031 0.280571 -0.5
       vertex 0.00887894 -0.00621693 -0.5
    endloop
  endfacet
  facet normal 0.939693 0.342019 -0
    outer loop
       vertex -0.0955031 0.280571 -0.5
       vertex -0.0955031 0.280571 0.5
       vertex 0.00887894 -0.00621693 0.5
    endloop
  endfacet
  facet normal 0.939693 0.342019 -0
    outer loop
       vertex 0.00887894 -0.00621693 -0.5
       vertex -0.0955031 0.280571 -0.5
       vertex 0.00887894 -0.00621693 0.5
    endloop
  endfacet
endsolid OpenSCAD_Model
