solid OpenSCAD_Model
  facet normal -0 1 0
    outer loop
       vertex -0.402907 0.282118 0.5
       vertex -0.0977134 0.282118 0.5
       vertex -0.402907 0.282118 -0.5
    endloop
  endfacet
  facet normal 0 1 0
    outer loop
       vertex -0.402907 0.282118 -0.5
       vertex -0.0977134 0.282118 0.5
       vertex -0.0977134 0.282118 -0.5
    endloop
  endfacet
  facet normal -0 0 1
    outer loop
       vertex -0.402907 0.282118 0.5
       vertex 0.00666856 -0.00466961 0.5
       vertex -0.0977134 0.282118 0.5
    endloop
  endfacet
  facet normal -0.573576 -0.819152 0
    outer loop
       vertex -0.402907 0.282118 -0.5
       vertex 0.00666856 -0.00466961 -0.5
       vertex 0.00666856 -0.00466961 0.5
    endloop
  endfacet
  facet normal -0.573576 -0.819152 -0
    outer loop
       vertex -0.402907 0.282118 0.5
       vertex -0.402907 0.282118 -0.5
       vertex 0.00666856 -0.00466961 0.5
    endloop
  endfacet
  facet normal 0 0 -1
    outer loop
       vertex -0.402907 0.282118 -0.5
       vertex -0.0977134 0.282118 -0.5
       vertex 0.00666856 -0.00466961 -0.5
    endloop
  endfacet
  facet normal 0.939693 0.342019 -0
    outer loop
       vertex -0.0977134 0.282118 -0.5
       vertex -0.0977134 0.282118 0.5
       vertex 0.00666856 -0.00466961 0.5
    endloop
  endfacet
  facet normal 0.939693 0.342019 -0
    outer loop
       vertex 0.00666856 -0.00466961 -0.5
       vertex -0.0977134 0.282118 -0.5
       vertex 0.00666856 -0.00466961 0.5
    endloop
  endfacet
endsolid OpenSCAD_Model
