solid OpenSCAD_Model
  facet normal -0 1 0
    outer loop
       vertex -0.401037 0.280809 0.5
       vertex -0.0958432 0.280809 0.5
       vertex -0.401037 0.280809 -0.5
    endloop
  endfacet
  facet normal 0 1 0
    outer loop
       vertex -0.401037 0.280809 -0.5
       vertex -0.0958432 0.280809 0.5
       vertex -0.0958432 0.280809 -0.5
    endloop
  endfacet
  facet normal -0 0 1
    outer loop
       vertex -0.401037 0.280809 0.5
       vertex 0.00853882 -0.00597884 0.5
       vertex -0.0958432 0.280809 0.5
    endloop
  endfacet
  facet normal -0.573576 -0.819152 0
    outer loop
       vertex -0.401037 0.280809 -0.5
       vertex 0.00853882 -0.00597884 -0.5
       vertex 0.00853882 -0.00597884 0.5
    endloop
  endfacet
  facet normal -0.573576 -0.819152 -0
    outer loop
       vertex -0.401037 0.280809 0.5
       vertex -0.401037 0.280809 -0.5
       vertex 0.00853882 -0.00597884 0.5
    endloop
  endfacet
  facet normal 0 0 -1
    outer loop
       vertex -0.401037 0.280809 -0.5
       vertex -0.0958432 0.280809 -0.5
       vertex 0.00853882 -0.00597884 -0.5
    endloop
  endfacet
  facet normal 0.939693 0.342019 -0
    outer loop
       vertex -0.0958432 0.280809 -0.5
       vertex -0.0958432 0.280809 0.5
       vertex 0.00853882 -0.00597884 0.5
    endloop
  endfacet
  facet normal 0.939693 0.342019 -0
    outer loop
       vertex 0.00853882 -0.00597884 -0.5
       vertex -0.0958432 0.280809 -0.5
       vertex 0.00853882 -0.00597884 0.5
    endloop
  endfacet
endsolid OpenSCAD_Model
