solid OpenSCAD_Model
  facet normal -0 1 0
    outer loop
       vertex -0.351303 0.245986 0.5
       vertex -0.0461094 0.245986 0.5
       vertex -0.351303 0.245986 -0.5
    endloop
  endfacet
  facet normal 0 1 0
    outer loop
       vertex -0.351303 0.245986 -0.5
       vertex -0.0461094 0.245986 0.5
       vertex -0.0461094 0.245986 -0.5
    endloop
  endfacet
  facet normal -0 0 1
    outer loop
       vertex -0.351303 0.245986 0.5
       vertex 0.0582726 -0.0408023 0.5
       vertex -0.0461094 0.245986 0.5
    endloop
  endfacet
  facet normal -0.573576 -0.819152 0
    outer loop
       vertex -0.351303 0.245986 -0.5
       vertex 0.0582726 -0.0408023 -0.5
       vertex 0.0582726 -0.0408023 0.5
    endloop
  endfacet
  facet normal -0.573576 -0.819152 -0
    outer loop
       vertex -0.351303 0.245986 0.5
       vertex -0.351303 0.245986 -0.5
       vertex 0.0582726 -0.0408023 0.5
    endloop
  endfacet
  facet normal 0 0 -1
    outer loop
       vertex -0.351303 0.245986 -0.5
       vertex -0.0461094 0.245986 -0.5
       vertex 0.0582726 -0.0408023 -0.5
    endloop
  endfacet
  facet normal 0.939693 0.342019 -0
    outer loop
       vertex -0.0461094 0.245986 -0.5
       vertex -0.0461094 0.245986 0.5
       vertex 0.0582726 -0.0408023 0.5
    endloop
  endfacet
  facet normal 0.939693 0.342019 -0
    outer loop
       vertex 0.0582726 -0.0408023 -0.5
       vertex -0.0461094 0.245986 -0.5
       vertex 0.0582726 -0.0408023 0.5
    endloop
  endfacet
endsolid OpenSCAD_Model
