solid OpenSCAD_Model
  facet normal -0 1 0
    outer loop
       vertex -0.401138 0.28088 0.5
       vertex -0.0959437 0.28088 0.5
       vertex -0.401138 0.28088 -0.5
    endloop
  endfacet
  facet normal 0 1 0
    outer loop
       vertex -0.401138 0.28088 -0.5
       vertex -0.0959437 0.28088 0.5
       vertex -0.0959437 0.28088 -0.5
    endloop
  endfacet
  facet normal -0 0 1
    outer loop
       vertex -0.401138 0.28088 0.5
       vertex 0.00843829 -0.00590847 0.5
       vertex -0.0959437 0.28088 0.5
    endloop
  endfacet
  facet normal -0.573576 -0.819152 0
    outer loop
       vertex -0.401138 0.28088 -0.5
       vertex 0.00843829 -0.00590847 -0.5
       vertex 0.00843829 -0.00590847 0.5
    endloop
  endfacet
  facet normal -0.573576 -0.819152 -0
    outer loop
       vertex -0.401138 0.28088 0.5
       vertex -0.401138 0.28088 -0.5
       vertex 0.00843829 -0.00590847 0.5
    endloop
  endfacet
  facet normal 0 0 -1
    outer loop
       vertex -0.401138 0.28088 -0.5
       vertex -0.0959437 0.28088 -0.5
       vertex 0.00843829 -0.00590847 -0.5
    endloop
  endfacet
  facet normal 0.939693 0.342019 -0
    outer loop
       vertex -0.0959437 0.28088 -0.5
       vertex -0.0959437 0.28088 0.5
       vertex 0.00843829 -0.00590847 0.5
    endloop
  endfacet
  facet normal 0.939693 0.342019 -0
    outer loop
       vertex 0.00843829 -0.00590847 -0.5
       vertex -0.0959437 0.28088 -0.5
       vertex 0.00843829 -0.00590847 0.5
    endloop
  endfacet
endsolid OpenSCAD_Model
