solid OpenSCAD_Model
  facet normal -0 1 0
    outer loop
       vertex -0.351562 0.246167 0.5
       vertex -0.0463677 0.246167 0.5
       vertex -0.351562 0.246167 -0.5
    endloop
  endfacet
  facet normal 0 1 0
    outer loop
       vertex -0.351562 0.246167 -0.5
       vertex -0.0463677 0.246167 0.5
       vertex -0.0463677 0.246167 -0.5
    endloop
  endfacet
  facet normal -0 0 1
    outer loop
       vertex -0.351562 0.246167 0.5
       vertex 0.0580143 -0.0406214 0.5
       vertex -0.0463677 0.246167 0.5
    endloop
  endfacet
  facet normal -0.573576 -0.819152 0
    outer loop
       vertex -0.351562 0.246167 -0.5
       vertex 0.0580143 -0.0406214 -0.5
       vertex 0.0580143 -0.0406214 0.5
    endloop
  endfacet
  facet normal -0.573576 -0.819152 -0
    outer loop
       vertex -0.351562 0.246167 0.5
       vertex -0.351562 0.246167 -0.5
       vertex 0.0580143 -0.0406214 0.5
    endloop
  endfacet
  facet normal 0 0 -1
    outer loop
       vertex -0.351562 0.246167 -0.5
       vertex -0.0463677 0.246167 -0.5
       vertex 0.0580143 -0.0406214 -0.5
    endloop
  endfacet
  facet normal 0.939693 0.342019 -0
    outer loop
       vertex -0.0463677 0.246167 -0.5
       vertex -0.0463677 0.246167 0.5
       vertex 0.0580143 -0.0406214 0.5
    endloop
  endfacet
  facet normal 0.939693 0.342019 -0
    outer loop
       vertex 0.0580143 -0.0406214 -0.5
       vertex -0.0463677 0.246167 -0.5
       vertex 0.0580143 -0.0406214 0.5
    endloop
  endfacet
endsolid OpenSCAD_Model
