solid OpenSCAD_Model
  facet normal -0 1 0
    outer loop
       vertex -0.334868 0.234477 0.5
       vertex -0.029674 0.234477 0.5
       vertex -0.334868 0.234477 -0.5
    endloop
  endfacet
  facet normal 0 1 0
    outer loop
       vertex -0.334868 0.234477 -0.5
       vertex -0.029674 0.234477 0.5
       vertex -0.029674 0.234477 -0.5
    endloop
  endfacet
  facet normal -0 0 1
    outer loop
       vertex -0.334868 0.234477 0.5
       vertex 0.074708 -0.0523109 0.5
       vertex -0.029674 0.234477 0.5
    endloop
  endfacet
  facet normal -0.573576 -0.819152 0
    outer loop
       vertex -0.334868 0.234477 -0.5
       vertex 0.074708 -0.0523109 -0.5
       vertex 0.074708 -0.0523109 0.5
    endloop
  endfacet
  facet normal -0.573576 -0.819152 -0
    outer loop
       vertex -0.334868 0.234477 0.5
       vertex -0.334868 0.234477 -0.5
       vertex 0.074708 -0.0523109 0.5
    endloop
  endfacet
  facet normal 0 0 -1
    outer loop
       vertex -0.334868 0.234477 -0.5
       vertex -0.029674 0.234477 -0.5
       vertex 0.074708 -0.0523109 -0.5
    endloop
  endfacet
  facet normal 0.939693 0.342019 -0
    outer loop
       vertex -0.029674 0.234477 -0.5
       vertex -0.029674 0.234477 0.5
       vertex 0.074708 -0.0523109 0.5
    endloop
  endfacet
  facet normal 0.939693 0.342019 -0
    outer loop
       vertex 0.074708 -0.0523109 -0.5
       vertex -0.029674 0.234477 -0.5
       vertex 0.074708 -0.0523109 0.5
    endloop
  endfacet
endsolid OpenSCAD_Model
